<?xml version="1.0"?>
<svg xmlns="http://www.w3.org/2000/svg" xmlns:xlink="http://www.w3.org/1999/xlink" version="1.1" id="Layer_1" x="0px" y="0px" viewBox="0 0 210.414 210.414" style="enable-background:new 0 0 210.414 210.414;" xml:space="preserve" width="512px" height="512px"><g><g>
	<g>
		<g>
			<path d="M105.207,0C66.532,0,35.069,31.45,35.069,70.104v70.21c0,38.653,31.463,70.1,70.138,70.1     c38.675,0,70.138-31.446,70.138-70.1v-70.21C175.345,31.45,143.881,0,105.207,0z M167.552,140.314     c0,34.357-27.968,62.307-62.345,62.307c-34.377,0-62.345-27.95-62.345-62.307v-70.21c0-34.357,27.968-62.311,62.345-62.311     c34.377,0,62.345,27.953,62.345,62.311V140.314z" data-original="#000000" class="active-path" data-old_color="#000000" fill="#FF9800"/>
			<path d="M105.207,23.379c-2.152,0-3.897,1.743-3.897,3.897v35.286c0,2.154,1.745,3.897,3.897,3.897     c2.152,0,3.897-1.743,3.897-3.897V27.276C109.103,25.122,107.359,23.379,105.207,23.379z" data-original="#000000" class="active-path" data-old_color="#000000" fill="#FF9800"/>
		</g>
	</g>
</g></g> </svg>
